<?xml version="1.0" encoding="utf-8"?>
<!-- Generator: Adobe Illustrator 23.0.0, SVG Export Plug-In . SVG Version: 6.00 Build 0)  -->
<svg version="1.1" id="Layer_1" xmlns="http://www.w3.org/2000/svg" xmlns:xlink="http://www.w3.org/1999/xlink" x="0px" y="0px"
	 viewBox="0 0 70 70" style="enable-background:new 0 0 70 70;" xml:space="preserve">
<style type="text/css">
	.st0{fill-rule:evenodd;clip-rule:evenodd;fill:#89D2D7;}
</style>
<path id="icon-2_16_" class="st0" d="M35,0.95C53.8,0.95,69.05,16.2,69.05,35S53.8,69.05,35,69.05S0.95,53.8,0.95,35l0,0
	C0.95,16.2,16.2,0.95,35,0.95z M35,7.33C50.28,7.32,62.68,19.7,62.69,34.98c0.01,15.28-12.37,27.68-27.66,27.69
	S7.35,50.3,7.34,35.02c0,0,0-0.01,0-0.02C7.34,19.72,19.72,7.34,35,7.33C34.99,7.33,35,7.33,35,7.33z M44.95,39.61
	c0.07-1.38-0.34-2.75-1.16-3.87c-0.73-0.96-1.68-1.71-2.79-2.2c-1.34-0.56-2.71-1.04-4.1-1.42c-1.11-0.34-1.96-0.62-2.52-0.84
	c-0.53-0.19-1.02-0.48-1.43-0.87c-0.38-0.32-0.59-0.8-0.58-1.3c-0.03-0.5,0.23-0.98,0.67-1.24c0.56-0.31,1.19-0.46,1.82-0.43
	c1.24,0.05,2.46,0.29,3.63,0.71c1.42,0.47,2.79,1.09,4.07,1.86l2.35-4.98c-1.09-0.69-2.25-1.24-3.48-1.64
	c-1.29-0.45-2.63-0.75-3.99-0.9v-4.77h-4.53v4.83c-1.94,0.22-3.76,1.06-5.2,2.38c-1.26,1.26-1.94,2.99-1.89,4.77
	c-0.07,1.34,0.34,2.67,1.14,3.75c0.72,0.92,1.67,1.64,2.74,2.1c1.32,0.55,2.67,1.02,4.05,1.39c1.09,0.28,1.94,0.56,2.54,0.77
	c0.55,0.18,1.06,0.48,1.5,0.87c0.4,0.34,0.61,0.84,0.6,1.36c0.02,0.6-0.28,1.17-0.8,1.49c-0.67,0.38-1.43,0.56-2.2,0.53
	c-1.51-0.05-3-0.4-4.38-1.02c-1.56-0.64-3.01-1.53-4.28-2.63l-2.42,4.86c1.18,0.99,2.51,1.8,3.94,2.38
	c1.48,0.64,3.04,1.09,4.64,1.33v5.08h4.53v-5.05c2.01-0.21,3.9-1.03,5.44-2.35C44.26,43.3,45.01,41.49,44.95,39.61L44.95,39.61
	L44.95,39.61z"/>
</svg>
