<?xml version="1.0" encoding="utf-8"?>
<!-- Generator: Adobe Illustrator 23.0.0, SVG Export Plug-In . SVG Version: 6.00 Build 0)  -->
<svg version="1.1" id="Layer_1" xmlns="http://www.w3.org/2000/svg" xmlns:xlink="http://www.w3.org/1999/xlink" x="0px" y="0px"
	 viewBox="0 0 70 70" style="enable-background:new 0 0 70 70;" xml:space="preserve">
<style type="text/css">
	.st0{fill-rule:evenodd;clip-rule:evenodd;fill:#46A29F;}
</style>
<path id="home_1_" class="st0" d="M42.61,39.57h24.35c1.68,0,3.04,1.36,3.04,3.04s-1.36,3.04-3.04,3.04H42.61
	c-1.68,0-3.04-1.36-3.04-3.04S40.93,39.57,42.61,39.57z M42.61,51.74h24.35c1.68,0,3.04,1.36,3.04,3.04s-1.36,3.04-3.04,3.04H42.61
	c-1.68,0-3.04-1.36-3.04-3.04S40.93,51.74,42.61,51.74z M42.61,63.91h24.35c1.68,0,3.04,1.36,3.04,3.04S68.64,70,66.96,70H42.61
	c-1.68,0-3.04-1.36-3.04-3.04S40.93,63.91,42.61,63.91z M9.13,0H21.3c5.04,0,9.13,4.09,9.13,9.13v51.74c0,5.04-4.09,9.13-9.13,9.13
	H9.13C4.09,70,0,65.91,0,60.87V9.13C0,4.09,4.09,0,9.13,0z M48.7,0h12.17C65.91,0,70,4.09,70,9.13V21.3c0,5.04-4.09,9.13-9.13,9.13
	H48.7c-5.04,0-9.13-4.09-9.13-9.13V9.13C39.57,4.09,43.65,0,48.7,0z M9.13,6.09H21.3c1.68,0,3.04,1.36,3.04,3.04v51.74
	c0,1.68-1.36,3.04-3.04,3.04H9.13c-1.68,0-3.04-1.36-3.04-3.04V9.13C6.09,7.45,7.45,6.09,9.13,6.09z M48.7,6.09h12.17
	c1.68,0,3.04,1.36,3.04,3.04V21.3c0,1.68-1.36,3.04-3.04,3.04H48.7c-1.68,0-3.04-1.36-3.04-3.04V9.13
	C45.65,7.45,47.01,6.09,48.7,6.09z"/>
</svg>
